TS_HW8_Liang_Gong
…
# The **square root transformation** is used to **stabilize variance** and **reduce the impact of large values** in the "Turnover" variable. This helps the **NNETAR** model learn patterns more effectively, especially if the data exhibits **heteroscedasticity** (changing variance over time). 

nn_base <- aus_retail_A3349744F %>%
  filter(Month < max(Month)-36) %>%
  model(nn = NNETAR(sqrt(Turnover)))

forecast_nn_base <- nn_base %>%
  forecast(h = 36)

print(forecast_nn_base)

## # A fable: 36 x 5 [1M]
## # Key:     State, .model [1]
##    State             .model    Month     Turnover .mean
##    <chr>             <chr>     <mth>       <dist> <dbl>
##  1 Western Australia nn     2014 Dec sample[5000] 1008.
##  2 Western Australia nn     2015 Jan sample[5000]  947.
##  3 Western Australia nn     2015 Feb sample[5000]  888.
##  4 Western Australia nn     2015 Mar sample[5000]  940.
##  5 Western Australia nn     2015 Apr sample[5000]  907.
##  6 Western Australia nn     2015 May sample[5000]  929.
##  7 Western Australia nn     2015 Jun sample[5000]  892.
##  8 Western Australia nn     2015 Jul sample[5000]  923.
##  9 Western Australia nn     2015 Aug sample[5000]  939.
## 10 Western Australia nn     2015 Sep sample[5000]  927.
## #  26 more rows
…
ETS Model

ets_base <- aus_retail_A3349744F %>%
  filter(Month < max(Month)-36) %>%
  model(ets = ETS(sqrt(Turnover)))

forecast_ets_base <-
  ets_base %>%
  forecast(h = 36)

print(forecast_ets_base)

## # A fable: 36 x 5 [1M]
## # Key:     State, .model [1]
##    State             .model    Month        Turnover .mean
##    <chr>             <chr>     <mth>          <dist> <dbl>
##  1 Western Australia ets    2014 Dec t(N(32, 0.076)) 1017.
##  2 Western Australia ets    2015 Jan t(N(30, 0.083))  926.
##  3 Western Australia ets    2015 Feb  t(N(30, 0.09))  873.
##  4 Western Australia ets    2015 Mar t(N(31, 0.096))  950.
##  5 Western Australia ets    2015 Apr   t(N(30, 0.1))  916.
##  6 Western Australia ets    2015 May  t(N(31, 0.11))  934.
##  7 Western Australia ets    2015 Jun  t(N(30, 0.12))  901.
##  8 Western Australia ets    2015 Jul  t(N(31, 0.12))  935.
##  9 Western Australia ets    2015 Aug  t(N(31, 0.13))  954.
## 10 Western Australia ets    2015 Sep  t(N(31, 0.14))  932.
## #  26 more rows
…
ARIMA Model

arima_base <- aus_retail_A3349744F %>%
  filter(Month < max(Month)-36) %>%
  model(arima = ARIMA(sqrt(Turnover)))

forecast_arima_base <- 
  arima_base %>%
  forecast(h = 36)

print(forecast_arima_base)

## # A fable: 36 x 5 [1M]
## # Key:     State, .model [1]
##    State             .model    Month        Turnover .mean
##    <chr>             <chr>     <mth>          <dist> <dbl>
##  1 Western Australia arima  2014 Dec t(N(32, 0.065)) 1033.
##  2 Western Australia arima  2015 Jan t(N(31, 0.069))  943.
##  3 Western Australia arima  2015 Feb t(N(30, 0.084))  881.
##  4 Western Australia arima  2015 Mar  t(N(31, 0.11))  957.
##  5 Western Australia arima  2015 Apr  t(N(30, 0.12))  927.
##  6 Western Australia arima  2015 May  t(N(31, 0.14))  942.
##  7 Western Australia arima  2015 Jun  t(N(30, 0.16))  907.
##  8 Western Australia arima  2015 Jul  t(N(31, 0.17))  941.
##  9 Western Australia arima  2015 Aug  t(N(31, 0.19))  960.
## 10 Western Australia arima  2015 Sep   t(N(31, 0.2))  943.
## #  26 more rows
…
