TS_HW5_Liang_Gong.knit
…
## Warning: package 'missMethods' was built under R version 4.3.3

11.1 Consider the PBS data which has aggregation structure ATC1/ATC2
* Concession * Type.

a. Produce plots of the aggregated Scripts data by Concession, Type
and ATC1.

print(PBS)

## # A tsibble: 67,596 x 9 [1M]
## # Key:       Concession, Type, ATC1, ATC2 [336]
##       Month Concession   Type      ATC1  ATC1_desc ATC2  ATC2_desc Scripts  Cost
##       <mth> <chr>        <chr>     <chr> <chr>     <chr> <chr>       <dbl> <dbl>
##  1 1991 Jul Concessional Co-payme A     Alimenta A01   STOMATOL   18228 67877
##  2 1991 Aug Concessional Co-payme A     Alimenta A01   STOMATOL   15327 57011
##  3 1991 Sep Concessional Co-payme A     Alimenta A01   STOMATOL   14775 55020
##  4 1991 Oct Concessional Co-payme A     Alimenta A01   STOMATOL   15380 57222
##  5 1991 Nov Concessional Co-payme A     Alimenta A01   STOMATOL   14371 52120
##  6 1991 Dec Concessional Co-payme A     Alimenta A01   STOMATOL   15028 54299
##  7 1992 Jan Concessional Co-payme A     Alimenta A01   STOMATOL   11040 39753
##  8 1992 Feb Concessional Co-payme A     Alimenta A01   STOMATOL   15165 54405
##  9 1992 Mar Concessional Co-payme A     Alimenta A01   STOMATOL   16898 61108
## 10 1992 Apr Concessional Co-payme A     Alimenta A01   STOMATOL   18141 65356
## #  67,586 more rows
…
## `summarise()` has grouped output by 'ATC1', 'ATC2', 'Concession'. You can
## override using the `.groups` argument.

# Removes any drug categories that were always 0, ensuring that only meaningful prescription data remains.
PBS <- PBS |>
  anti_join(PBSzeros)

## Joining with `by = join_by(Concession, Type, ATC1, ATC2)`

print(PBS)

## # A tsibble: 68,136 x 9 [1M]
## # Key:       Concession, Type, ATC1, ATC2 [334]
##       Month Concession   Type      ATC1  ATC1_desc ATC2  ATC2_desc Scripts  Cost
##       <mth> <chr>        <chr>     <chr> <chr>     <chr> <chr>       <dbl> <dbl>
##  1 1991 Jul Concessional Co-payme A     Alimenta A01   STOMATOL   18228 67877
##  2 1991 Aug Concessional Co-payme A     Alimenta A01   STOMATOL   15327 57011
##  3 1991 Sep Concessional Co-payme A     Alimenta A01   STOMATOL   14775 55020
##  4 1991 Oct Concessional Co-payme A     Alimenta A01   STOMATOL   15380 57222
##  5 1991 Nov Concessional Co-payme A     Alimenta A01   STOMATOL   14371 52120
##  6 1991 Dec Concessional Co-payme A     Alimenta A01   STOMATOL   15028 54299
##  7 1992 Jan Concessional Co-payme A     Alimenta A01   STOMATOL   11040 39753
##  8 1992 Feb Concessional Co-payme A     Alimenta A01   STOMATOL   15165 54405
##  9 1992 Mar Concessional Co-payme A     Alimenta A01   STOMATOL   16898 61108
## 10 1992 Apr Concessional Co-payme A     Alimenta A01   STOMATOL   18141 65356
## #  68,126 more rows

# aggregate_key() aggregates data across different hierarchical levels in the dataset.
# Sum all Scripts for each ATC1
# Sum Scripts within each ATC2 level for a given ATC1
# Within each ATC1/ATC2, it further sums Scripts by Concession and Type.

PBS_gts<- PBS |>
  aggregate_key(ATC1/ATC2 * Concession * Type, Scripts = sum(Scripts))

print(PBS_gts)

## # A tsibble: 183,192 x 6 [1M]
## # Key:       ATC1, Concession, Type, ATC2 [898]
##       Month ATC1         Concession   Type         ATC2         Scripts
##       <mth> <chr*>       <chr*>       <chr*>       <chr*>         <dbl>
##  1 1991 Jul <aggregated> <aggregated> <aggregated> <aggregated> 8090395
##  2 1991 Aug <aggregated> <aggregated> <aggregated> <aggregated> 7308118
##  3 1991 Sep <aggregated> <aggregated> <aggregated> <aggregated> 7614644
##  4 1991 Oct <aggregated> <aggregated> <aggregated> <aggregated> 8206248
##  5 1991 Nov <aggregated> <aggregated> <aggregated> <aggregated> 7686634
##  6 1991 Dec <aggregated> <aggregated> <aggregated> <aggregated> 8954872
##  7 1992 Jan <aggregated> <aggregated> <aggregated> <aggregated> 9616464
##  8 1992 Feb <aggregated> <aggregated> <aggregated> <aggregated> 6291465
##  9 1992 Mar <aggregated> <aggregated> <aggregated> <aggregated> 6806613
## 10 1992 Apr <aggregated> <aggregated> <aggregated> <aggregated> 7651435
## #  183,182 more rows
…
ETS model

ets_base <- PBS_gts |>
  filter(Month < max(Month)-36) |>
  model(ets = ETS(Scripts))

forecast_ets_base <- 
  ets_base |>
  forecast(h = 36)

print(forecast_ets_base)

## # A fable: 32,328 x 8 [1M]
## # Key:     ATC1, Concession, Type, ATC2, .model [898]
##    ATC1   Concession   Type        ATC2   .model    Month
##    <chr*> <chr*>       <chr*>      <chr*> <chr>     <mth>
##  1 A      Concessional Co-payments A01    ets    2005 Jun
##  2 A      Concessional Co-payments A01    ets    2005 Jul
##  3 A      Concessional Co-payments A01    ets    2005 Aug
##  4 A      Concessional Co-payments A01    ets    2005 Sep
##  5 A      Concessional Co-payments A01    ets    2005 Oct
##  6 A      Concessional Co-payments A01    ets    2005 Nov
##  7 A      Concessional Co-payments A01    ets    2005 Dec
##  8 A      Concessional Co-payments A01    ets    2006 Jan
##  9 A      Concessional Co-payments A01    ets    2006 Feb
## 10 A      Concessional Co-payments A01    ets    2006 Mar
## #  32,318 more rows
## #  2 more variables: Scripts <dist>, .mean <dbl>
…
## Warning in sqrt(diag(best$var.coef)): NaNs produced

## Warning in sqrt(diag(best$var.coef)): NaNs produced

## Warning in sqrt(diag(best$var.coef)): NaNs produced

## Warning in sqrt(diag(best$var.coef)): NaNs produced

forecast_arima_base <- 
  arima_base %>%
  forecast(h = 36)

print(forecast_arima_base)

## # A fable: 32,328 x 8 [1M]
## # Key:     ATC1, Concession, Type, ATC2, .model [898]
##    ATC1   Concession   Type        ATC2   .model    Month
##    <chr*> <chr*>       <chr*>      <chr*> <chr>     <mth>
##  1 A      Concessional Co-payments A01    arima  2005 Jun
##  2 A      Concessional Co-payments A01    arima  2005 Jul
##  3 A      Concessional Co-payments A01    arima  2005 Aug
##  4 A      Concessional Co-payments A01    arima  2005 Sep
##  5 A      Concessional Co-payments A01    arima  2005 Oct
##  6 A      Concessional Co-payments A01    arima  2005 Nov
##  7 A      Concessional Co-payments A01    arima  2005 Dec
##  8 A      Concessional Co-payments A01    arima  2006 Jan
##  9 A      Concessional Co-payments A01    arima  2006 Feb
## 10 A      Concessional Co-payments A01    arima  2006 Mar
## #  32,318 more rows
## #  2 more variables: Scripts <dist>, .mean <dbl>
…
SNAIVE model

snaive_base <-
  PBS_gts %>%
  filter(Month < max(Month)-36) %>%
  model(snaive = SNAIVE(Scripts))

forecast_snaive_base <- 
  snaive_base %>%
  forecast(h = 36)

print(forecast_snaive_base)

## # A fable: 32,328 x 8 [1M]
## # Key:     ATC1, Concession, Type, ATC2, .model [898]
##    ATC1   Concession   Type        ATC2   .model    Month
##    <chr*> <chr*>       <chr*>      <chr*> <chr>     <mth>
##  1 A      Concessional Co-payments A01    snaive 2005 Jun
##  2 A      Concessional Co-payments A01    snaive 2005 Jul
##  3 A      Concessional Co-payments A01    snaive 2005 Aug
##  4 A      Concessional Co-payments A01    snaive 2005 Sep
##  5 A      Concessional Co-payments A01    snaive 2005 Oct
##  6 A      Concessional Co-payments A01    snaive 2005 Nov
##  7 A      Concessional Co-payments A01    snaive 2005 Dec
##  8 A      Concessional Co-payments A01    snaive 2006 Jan
##  9 A      Concessional Co-payments A01    snaive 2006 Feb
## 10 A      Concessional Co-payments A01    snaive 2006 Mar
## #  32,318 more rows
## #  2 more variables: Scripts <dist>, .mean <dbl>
…
forecast_ets_base = Base forecasts at original levels.

forecast_ets_mint_36 = Base + reconciled forecasts, leading to twice
as many rows.

ets_mint_model <-
  ets_base %>%
  reconcile(Mint_ets = min_trace(ets))
  
forecast_ets_mint_36 <- 
  forecast(ets_mint_model, h = "3 years")

print(forecast_ets_mint_36)

## # A fable: 64,656 x 8 [1M]
## # Key:     ATC1, Concession, Type, ATC2, .model [1,796]
##    ATC1   Concession   Type        ATC2   .model    Month
##    <chr*> <chr*>       <chr*>      <chr*> <chr>     <mth>
##  1 A      Concessional Co-payments A01    ets    2005 Jun
##  2 A      Concessional Co-payments A01    ets    2005 Jul
##  3 A      Concessional Co-payments A01    ets    2005 Aug
##  4 A      Concessional Co-payments A01    ets    2005 Sep
##  5 A      Concessional Co-payments A01    ets    2005 Oct
##  6 A      Concessional Co-payments A01    ets    2005 Nov
##  7 A      Concessional Co-payments A01    ets    2005 Dec
##  8 A      Concessional Co-payments A01    ets    2006 Jan
##  9 A      Concessional Co-payments A01    ets    2006 Feb
## 10 A      Concessional Co-payments A01    ets    2006 Mar
## #  64,646 more rows
## #  2 more variables: Scripts <dist>, .mean <dbl>
…
ARIMA model with MinT Forecast Method

arima_mint_model <-
  arima_base %>%
  reconcile(Mint_ARIMA = min_trace(arima))

forecast_arima_mint_36 <- 
  arima_mint_model %>%
  forecast(h = 36)

print(forecast_arima_mint_36)

## # A fable: 64,656 x 8 [1M]
## # Key:     ATC1, Concession, Type, ATC2, .model [1,796]
##    ATC1   Concession   Type        ATC2   .model    Month
##    <chr*> <chr*>       <chr*>      <chr*> <chr>     <mth>
##  1 A      Concessional Co-payments A01    arima  2005 Jun
##  2 A      Concessional Co-payments A01    arima  2005 Jul
##  3 A      Concessional Co-payments A01    arima  2005 Aug
##  4 A      Concessional Co-payments A01    arima  2005 Sep
##  5 A      Concessional Co-payments A01    arima  2005 Oct
##  6 A      Concessional Co-payments A01    arima  2005 Nov
##  7 A      Concessional Co-payments A01    arima  2005 Dec
##  8 A      Concessional Co-payments A01    arima  2006 Jan
##  9 A      Concessional Co-payments A01    arima  2006 Feb
## 10 A      Concessional Co-payments A01    arima  2006 Mar
## #  64,646 more rows
## #  2 more variables: Scripts <dist>, .mean <dbl>
…
SNAIVE model with MinT Forecast Method

snaive_mint_model <-
  snaive_base%>%
  reconcile(
    SNAIVE_Mint = min_trace(snaive)
  )

forecast_snaive_mint_36 <-
  snaive_mint_model %>%
  forecast(h = 36)

print(forecast_snaive_mint_36)

## # A fable: 64,656 x 8 [1M]
## # Key:     ATC1, Concession, Type, ATC2, .model [1,796]
##    ATC1   Concession   Type        ATC2   .model    Month
##    <chr*> <chr*>       <chr*>      <chr*> <chr>     <mth>
##  1 A      Concessional Co-payments A01    snaive 2005 Jun
##  2 A      Concessional Co-payments A01    snaive 2005 Jul
##  3 A      Concessional Co-payments A01    snaive 2005 Aug
##  4 A      Concessional Co-payments A01    snaive 2005 Sep
##  5 A      Concessional Co-payments A01    snaive 2005 Oct
##  6 A      Concessional Co-payments A01    snaive 2005 Nov
##  7 A      Concessional Co-payments A01    snaive 2005 Dec
##  8 A      Concessional Co-payments A01    snaive 2006 Jan
##  9 A      Concessional Co-payments A01    snaive 2006 Feb
## 10 A      Concessional Co-payments A01    snaive 2006 Mar
## #  64,646 more rows
## #  2 more variables: Scripts <dist>, .mean <dbl>
…
