TS_HW1_Liang_Gong
…
augment(ets_fit)

## # A tsibble: 558 x 8 [1M]
## # Key:       Animal, State, .model [1]
##    Animal State    .model    Month  Count .fitted  .resid  .innov
##    <fct>  <fct>    <chr>     <mth>  <dbl>   <dbl>   <dbl>   <dbl>
##  1 Pigs   Victoria ses    1972 Jul  94200 100647.  -6447.  -6447.
##  2 Pigs   Victoria ses    1972 Aug 105700  98570.   7130.   7130.
##  3 Pigs   Victoria ses    1972 Sep  96500 100867.  -4367.  -4367.
##  4 Pigs   Victoria ses    1972 Oct 117100  99460.  17640.  17640.
##  5 Pigs   Victoria ses    1972 Nov 104600 105142.   -542.   -542.
##  6 Pigs   Victoria ses    1972 Dec 100500 104968.  -4468.  -4468.
##  7 Pigs   Victoria ses    1973 Jan  94700 103529.  -8829.  -8829.
##  8 Pigs   Victoria ses    1973 Feb  93900 100685.  -6785.  -6785.
##  9 Pigs   Victoria ses    1973 Mar  93200  98499.  -5299.  -5299.
## 10 Pigs   Victoria ses    1973 Apr  78000  96792. -18792. -18792.
## #  548 more rows
…
