TS_HW3_Liang_Gong
…
print(log_tslm_forecast)

## # A fable: 36 x 4 [1M]
## # Key:     .model [1]
##    .model                                   Month            Sales  .mean
##    <chr>                                    <mth>           <dist>  <dbl>
##  1 TSLM(log(Sales) ~ trend() + season()) 1994 Jan t(N(9.5, 0.041)) 13761.
##  2 TSLM(log(Sales) ~ trend() + season()) 1994 Feb t(N(9.8, 0.041)) 18089.
##  3 TSLM(log(Sales) ~ trend() + season()) 1994 Mar  t(N(10, 0.041)) 28842.
##  4 TSLM(log(Sales) ~ trend() + season()) 1994 Apr  t(N(10, 0.041)) 21584.
##  5 TSLM(log(Sales) ~ trend() + season()) 1994 May  t(N(10, 0.041)) 22633.
##  6 TSLM(log(Sales) ~ trend() + season()) 1994 Jun  t(N(10, 0.041)) 24066.
##  7 TSLM(log(Sales) ~ trend() + season()) 1994 Jul  t(N(10, 0.041)) 28917.
##  8 TSLM(log(Sales) ~ trend() + season()) 1994 Aug  t(N(10, 0.041)) 28903.
##  9 TSLM(log(Sales) ~ trend() + season()) 1994 Sep  t(N(10, 0.041)) 32051.
## 10 TSLM(log(Sales) ~ trend() + season()) 1994 Oct  t(N(10, 0.041)) 35425.
## #  26 more rows

print(log_tslm_arima_forecast)

## # A fable: 36 x 4 [1M]
## # Key:     .model [1]
##    .model                                    Month            Sales  .mean
##    <chr>                                     <mth>           <dist>  <dbl>
##  1 ARIMA(log(Sales) ~ trend() + season()) 1994 Jan t(N(9.6, 0.023)) 14540.
##  2 ARIMA(log(Sales) ~ trend() + season()) 1994 Feb t(N(9.8, 0.026)) 18792.
##  3 ARIMA(log(Sales) ~ trend() + season()) 1994 Mar  t(N(10, 0.033)) 28833.
##  4 ARIMA(log(Sales) ~ trend() + season()) 1994 Apr  t(N(10, 0.033)) 21577.
##  5 ARIMA(log(Sales) ~ trend() + season()) 1994 May  t(N(10, 0.033)) 22625.
##  6 ARIMA(log(Sales) ~ trend() + season()) 1994 Jun  t(N(10, 0.033)) 24057.
##  7 ARIMA(log(Sales) ~ trend() + season()) 1994 Jul  t(N(10, 0.033)) 28907.
##  8 ARIMA(log(Sales) ~ trend() + season()) 1994 Aug  t(N(10, 0.033)) 28894.
##  9 ARIMA(log(Sales) ~ trend() + season()) 1994 Sep  t(N(10, 0.033)) 32040.
## 10 ARIMA(log(Sales) ~ trend() + season()) 1994 Oct  t(N(10, 0.033)) 35413.
## #  26 more rows
…
